{
  "project_info": {
    "project_number": "466424801748",
    "project_id": "recipeapp-e0fa9",
    "storage_bucket": "recipeapp-e0fa9.appspot.com"
  },
  "client": [
    {
      "client_info": {
        "mobilesdk_app_id": "1:466424801748:android:7c025f021a2845dee58e41",
        "android_client_info": {
          "package_name": "com.example.midtermapp"
        }
      },
      "oauth_client": [
        {
          "client_id": "466424801748-3hat7k9up9bn28k7s3ijl7bo25e06khv.apps.googleusercontent.com",
          "client_type": 3
        }
      ],
      "api_key": [
        {
          "current_key": "AIzaSyAtq94p7n-0vMNa1nXDOXYR5OPlyIbu7MI"
        }
      ],
      "services": {
        "appinvite_service": {
          "other_platform_oauth_client": [
            {
              "client_id": "466424801748-3hat7k9up9bn28k7s3ijl7bo25e06khv.apps.googleusercontent.com",
              "client_type": 3
            }
          ]
        }
      }
    }
  ],
  "configuration_version": "1"
}